[gd_resource type="SpatialMaterial" load_steps=3 format=2]

[ext_resource path="res://addons/WaypointMap/PathGradient.tres" type="Gradient" id=1]

[sub_resource type="GradientTexture" id=1]
gradient = ExtResource( 1 )
width = 10

[resource]
flags_transparent = true
flags_unshaded = true
albedo_color = Color( 0.580392, 0.905882, 0.47451, 1 )
albedo_texture = SubResource( 1 )
